{

  "nav": [
    {
        "name": "О компании",
        "url": "./about.html"
    },
    {
        "name": "Недвижимость",
        "url": "./apartments.html"
    },
    {
        "name": "Партнерам",
        "url": "#"
    },
    {
        "name": "Журнал",
        "url": "./journal.html"
    },
    {
        "name": "Контакты",
        "url": "#"
    }
  ],


  "cities": {
    "active" : "Ижевск",
    "items" : [
      {
        "name": "Санкт-Петербург",
        "url": "#"
      },
      {
        "name": "Москва",
        "url": "#"
      },
      {
        "name": "Екатеринбург",
        "url": "#"
      },
      {
        "name": "Нижний Новгород",
        "url": "#"
      }
    ]
  },


  "socials" : [
    {
      "name" : "instagram",
      "url" : "https://www.instagram.com/talan_tyumen"
    },
    {
      "name" : "odnoklassniki",
      "url" : "https://ok.ru/profile/588185280058 "
    },
    {
      "name" : "vkontakte",
      "url" : "https://vk.com/talan_tyumen"
    },
    {
      "name" : "facebook",
      "url" : "https://www.facebook.com/profile.php?id=100022990113201&ref=bookmarks"
    }
  ],


  "subnav" : [
    {
      "name" : "Опрос",
      "url" : "#"
    },
    {
      "name" : "заявка на гарантию",
      "url" : "#"
    },
    {
      "name" : "как купить",
      "url" : "#"
    },
    {
      "name" : "инвестирование в недвижимость",
      "url" : "#"
    }
  ]
}
